E8:65:49:DD:3B:70,902508240
E8:65:49:9C:D0:00,2172457342
E8:65:49:37:C8:20,165082733
E8:65:49:EA:5F:40,198273047
D0:72:DC:14:3B:00,43192032
E8:65:49:DB:59:40,1201022644
E8:65:49:D0:34:40,947401533
E8:65:49:48:9C:60,151421925
E8:65:49:A6:F3:F0,4385060773
F8:C2:88:C6:C6:20,357766828
E8:65:49:32:D6:D0,3210895
E8:65:49:DD:3C:60,710700111
E8:65:49:DD:43:E0,272908507
E8:65:49:4E:FA:20,1952545
D0:72:DC:2C:5D:00,46229265
E8:65:49:32:F5:30,544
E8:65:49:53:6D:A0,517399764
E8:65:49:A6:EC:C0,30636751
E8:65:49:32:DE:40,1431510771
E8:65:49:A6:AB:90,128965361
E8:65:49:DD:8A:60,189502219
E8:65:49:33:12:E0,11995878
E8:65:49:D0:75:D0,194362704
E8:65:49:A1:A3:B0,2210150145
44:AD:D9:A0:8E:90,29562145
E8:65:49:B9:DE:70,24375
D0:72:DC:2C:5D:A0,107713104
E8:65:49:DD:90:F0,397871779
E8:65:49:53:65:A0,19886714
E8:65:49:D0:32:60,6837617233
E8:65:49:A6:AB:80,4957184051
D8:B1:90:20:B5:F0,1610709
E8:65:49:48:9C:B0,188442395
E8:65:49:DB:55:20,348556920
E8:65:49:3D:4F:70,148731884
D8:B1:90:20:C0:F0,236734360
E8:65:49:DD:34:10,490392628
D0:72:DC:1E:31:40,37708051
E8:65:49:37:CF:C0,81955579
D8:B1:90:20:BD:40,177042584
E8:65:49:DD:68:20,200942359
E8:65:49:D0:42:10,387614667
D0:72:DC:1E:32:D0,33366450
E8:65:49:DD:8C:C0,30083614
D0:72:DC:1E:2F:90,9661176
E8:65:49:5B:02:40,15257184
E8:65:49:3D:5D:E0,660744
E8:65:49:53:5C:70,278741601
E8:65:49:DB:49:60,64118404
E8:65:49:4E:FA:C0,5251653
E8:65:49:37:DF:70,410112045
E8:65:49:9E:1F:40,7754378
E8:65:49:DD:92:E0,127529123
E8:65:49:91:12:10,17076187
E8:65:49:40:06:70,27171736
E8:65:49:9E:1D:60,195167879
E8:65:49:DB:50:90,6060975615
E8:65:49:DB:49:90,3846831075
E8:65:49:B9:C0:90,9014828613
D0:72:DC:1E:38:10,190801112
E8:65:49:A6:A8:90,34494299
E8:65:49:37:C2:F0,130675
E8:65:49:D0:7A:F0,460221
E8:65:49:D0:69:40,398605542
E8:65:49:40:14:B0,84169
E8:65:49:EA:5F:80,52427119
D0:72:DC:09:18:10,75170698
D8:B1:90:13:B1:90,1458643778
E8:65:49:3D:54:30,272109911
D0:72:DC:17:98:90,20588912
00:00:00:00:00:00,2377
D8:B1:90:19:D9:20,5990722480
E8:65:49:DD:8B:40,4357947254
E8:65:49:40:09:F0,6050497
E8:65:49:15:A6:80,30448789
D8:B1:90:13:AB:60,19474991
E8:65:49:D0:72:70,248077842
E8:65:49:DB:40:20,108399661
E8:65:49:3E:DB:00,100445102
E8:65:49:D0:68:C0,13650901
E8:65:49:DB:50:00,85731719
E8:65:49:DD:75:D0,422778011
E8:65:49:DD:3C:B0,80204772
E8:65:49:D0:31:00,156207024
E8:65:49:A6:CC:D0,1408877330
E8:65:49:5B:0E:C0,8141727
E8:65:49:5C:93:F0,88693119
E8:65:49:32:DD:60,61686334
E8:65:49:D0:38:A0,103787686
E8:65:49:DD:75:90,109174711
E8:65:49:37:D4:30,180762863
E8:65:49:D0:63:E0,168685940
E8:65:49:A6:9B:20,3755402
F8:C2:88:C6:C6:A0,121495907
D0:72:DC:2C:66:50,79137
E8:65:49:A1:A0:90,19610077
E8:65:49:DD:84:00,29299164
E8:65:49:5C:97:00,768847944
D0:72:DC:17:9D:E0,7337593
E8:65:49:D0:63:F0,17825
E8:65:49:D0:36:C0,612748961
E8:65:49:DD:41:40,31666432
E8:65:49:D0:72:E0,2467111879
08:CC:68:DB:C3:60,79164
E8:65:49:A6:EA:40,1079799083
E8:65:49:D0:65:70,54868677
E8:65:49:D0:3F:50,1313535144
E8:65:49:DB:55:A0,37318456
E8:65:49:5C:97:80,124770790
E8:65:49:3D:4B:30,20713015
E8:65:49:D0:5D:B0,66520328
D0:72:DC:2C:5D:70,1575984
E8:65:49:3D:4B:60,51916159
D8:B1:90:13:2E:10,2175979906
D8:B1:90:19:E0:F0,472613709
E8:65:49:48:A4:60,152942965
E8:65:49:4F:38:40,145007585
E8:65:49:DB:56:30,629215995
E8:65:49:33:07:10,798884736
E8:65:49:73:75:20,41063560
E8:65:49:5B:11:60,110572707
E8:65:49:48:9E:F0,790503
