E8:65:49:9C:D0:00,756406
E8:65:49:EA:5F:40,765248
E8:65:49:DB:59:40,1535387
E8:65:49:D0:34:40,1644429
E8:65:49:48:9C:60,5795937
E8:65:49:A6:F3:F0,23447838
F8:C2:88:C6:C6:20,12139
E8:65:49:32:D6:D0,2379852
E8:65:49:4E:FA:20,38970
E8:65:49:DD:3C:60,210381
E8:65:49:DD:8B:40,5063019
E8:65:49:15:A6:80,410912
E8:65:49:D0:72:70,20868
E8:65:49:DB:40:20,51692
E8:65:49:53:6D:A0,537528
E8:65:49:3E:DB:00,9618
E8:65:49:D0:68:C0,3506773
E8:65:49:32:DE:40,9079237
E8:65:49:DD:8A:60,5088588
E8:65:49:DB:50:00,45262
E8:65:49:DD:3C:B0,287741
E8:65:49:A6:CC:D0,1347794
E8:65:49:D0:31:00,1334738
E8:65:49:5B:0E:C0,1418259
E8:65:49:5C:93:F0,1718774
E8:65:49:32:DD:60,50790125
E8:65:49:A1:A3:B0,2440577
E8:65:49:D0:75:D0,17646476
E8:65:49:37:D4:30,69778
44:AD:D9:A0:8E:90,27646
E8:65:49:A6:9B:20,11632
D0:72:DC:2C:5D:A0,909099
E8:65:49:DD:90:F0,711077
E8:65:49:A1:A0:90,4327
E8:65:49:D0:32:60,185965906
E8:65:49:DD:84:00,10117
E8:65:49:A6:AB:80,353739
E8:65:49:5C:97:00,17410265
E8:65:49:D0:36:C0,1577044
E8:65:49:DD:41:40,360885
E8:65:49:48:9C:B0,3804308
E8:65:49:DB:55:20,5799041
E8:65:49:D0:72:E0,73517190
E8:65:49:3D:4F:70,282685
E8:65:49:DD:34:10,3286199
E8:65:49:37:CF:C0,241015
D8:B1:90:20:C0:F0,19004
D0:72:DC:1E:31:40,224537
E8:65:49:A6:EA:40,116353886
E8:65:49:DD:68:20,16627482
E8:65:49:D0:42:10,6880159
E8:65:49:DD:8C:C0,1135163
E8:65:49:D0:65:70,4216
E8:65:49:D0:3F:50,1101868355
E8:65:49:DB:55:A0,317614
E8:65:49:3D:5D:E0,6264
E8:65:49:5C:97:80,814318
E8:65:49:53:5C:70,6378269
E8:65:49:DB:49:60,1285778
E8:65:49:4E:FA:C0,70225
E8:65:49:37:DF:70,2823557
E8:65:49:40:06:70,612913
D8:B1:90:13:2E:10,21739927
E8:65:49:DB:50:90,17532693
D8:B1:90:19:E0:F0,19589168
E8:65:49:48:A4:60,13553260
E8:65:49:DB:49:90,8580022
E8:65:49:B9:C0:90,1429247098
E8:65:49:DB:56:30,585887
E8:65:49:73:75:20,23346
E8:65:49:A6:A8:90,16959
E8:65:49:33:07:10,1222152
E8:65:49:5B:11:60,3155285
D8:B1:90:13:B1:90,56276952
E8:65:49:3D:54:30,16499403
D8:B1:90:19:D9:20,20270162
